Elevator/simulation/qsim/Elevator.msim.vcd
$comment
	File created using the following command:
		vcd file Elevator.msim.vcd -direction
$end
$date
	Fri Nov 22 11:34:36 2024
$end
$version
	ModelSim Version 10.1d
$end
$timescale
	1ps
$end
$scope module Elevator_vlg_vec_tst $end
$var reg 1 ! CLK $end
$var reg 1 " R $end
$var reg 1 # down $end
$var reg 1 $ up $end
$var wire 1 % lights [3] $end
$var wire 1 & lights [2] $end
$var wire 1 ' lights [1] $end
$var wire 1 ( lights [0] $end
$var wire 1 ) sampler $end
$scope module i1 $end
$var wire 1 * gnd $end
$var wire 1 + vcc $end
$var wire 1 , unknown $end
$var tri1 1 - devclrn $end
$var tri1 1 . devpor $end
$var tri1 1 / devoe $end
$var wire 1 0 lights[0]~output_o $end
$var wire 1 1 lights[1]~output_o $end
$var wire 1 2 lights[2]~output_o $end
$var wire 1 3 lights[3]~output_o $end
$var wire 1 4 CLK~input_o $end
$var wire 1 5 CLK~inputclkctrl_outclk $end
$var wire 1 6 R~input_o $end
$var wire 1 7 down~input_o $end
$var wire 1 8 up~input_o $end
$var wire 1 9 comb_28|comb_4|comb_3|QInternal~0_combout $end
$var wire 1 : comb_28|comb_4|comb_3|QInternal~1_combout $end
$var wire 1 ; comb_28|comb_6|comb_3|QInternal~0_combout $end
$var wire 1 < comb_31|comb_4|comb_3|QInternal~0_combout $end
$var wire 1 = comb_31|comb_4|comb_3|QInternal~1_combout $end
$var wire 1 > comb_31|comb_6|comb_3|QInternal~0_combout $end
$var wire 1 ? lights~0_combout $end
$var wire 1 @ lights~1_combout $end
$var wire 1 A lights~2_combout $end
$var wire 1 B lights~3_combout $end
$upscope $end
$upscope $end
$enddefinitions $end
#0
$dumpvars
0!
0"
0#
0$
x(
x'
x&
x%
x)
0*
1+
x,
1-
1.
1/
x0
x1
x2
x3
04
05
06
07
08
x9
x:
x;
x<
x=
x>
x?
x@
xA
xB
$end
#10000
1"
16
0)
1=
1:
#20000
1!
14
15
1)
1>
1;
1B
0<
19
0A
0@
1?
03
02
01
10
0%
0&
0'
1(
#30000
0"
06
0)
#40000
0!
04
05
1)
0=
#50000
1#
17
0)
1<
1=
#60000
1!
14
15
1)
#70000
0#
07
0)
0<
#80000
0!
04
05
1)
0=
#90000
1$
18
0)
1<
09
1=
0:
#100000
1!
14
15
1)
0;
0<
19
1@
0?
11
00
1'
0(
#110000
0$
08
0)
09
#120000
0!
04
05
1)
0=
#130000
1$
18
0)
19
1:
#140000
1!
14
15
1)
0>
1;
09
1A
0@
12
01
1&
0'
#150000
0$
08
0)
1<
#160000
0!
04
05
1)
1=
0:
#170000
1$
18
0)
0<
0=
#180000
1!
14
15
1)
0;
0B
0A
13
02
1%
0&
#190000
0$
08
0)
#200000
0!
04
05
1)
#210000
1$
18
0)
#220000
1!
14
15
1)
#230000
0$
08
0)
#240000
0!
04
05
1)
#250000
1#
17
0)
19
1:
#260000
1!
14
15
1)
1;
1B
1<
09
1A
03
12
0%
1&
#270000
0#
07
0)
#280000
0!
04
05
1)
1=
0:
#290000
1#
17
0)
#300000
1!
14
15
1)
1>
0;
19
0A
1@
02
11
0&
1'
#310000
0#
07
0)
0<
09
#320000
0!
04
05
1)
0=
#330000
1$
18
0)
19
1:
#340000
1!
14
15
1)
0>
1;
09
1A
0@
12
01
1&
0'
#350000
0$
08
0)
1<
#360000
0!
04
05
1)
1=
0:
#370000
1#
17
0)
#380000
1!
14
15
1)
1>
0;
19
0A
1@
02
11
0&
1'
#390000
0#
07
0)
0<
09
#400000
0!
04
05
1)
0=
#410000
1#
17
0)
1<
19
1=
1:
#420000
1!
14
15
1)
1;
0@
1?
01
10
0'
1(
#430000
0#
07
0)
0<
#440000
0!
04
05
1)
0=
#450000
1#
17
0)
1<
1=
#460000
1!
14
15
1)
#470000
0#
07
0)
0<
#480000
0!
04
05
1)
0=
#490000
1$
18
0)
1<
09
1=
0:
#500000
1!
14
15
1)
0;
0<
19
1@
0?
11
00
1'
0(
#510000
0$
08
0)
09
#520000
0!
04
05
1)
0=
#530000
1#
1$
17
18
0)
1<
19
1=
1:
#540000
1!
14
15
1)
1;
0@
1?
01
10
0'
1(
#550000
0#
0$
07
08
0)
0<
#560000
0!
04
05
1)
0=
#580000
1!
14
15
0)
0>
1<
09
1A
0?
12
00
1&
0(
#600000
0!
04
05
1)
1=
0:
#620000
1!
14
15
0)
1>
0;
0<
0A
1@
02
11
0&
1'
#640000
0!
04
05
1)
0=
#660000
1!
14
15
0)
0>
0B
0@
13
01
1%
0'
#680000
0!
04
05
1)
#700000
1!
14
15
0)
#720000
0!
04
05
1)
#740000
1!
14
15
0)
#760000
0!
04
05
1)
#780000
1!
14
15
0)
#800000
0!
04
05
1)
#820000
1!
14
15
0)
#840000
0!
04
05
1)
#860000
1!
14
15
0)
#880000
0!
04
05
1)
#900000
1!
14
15
0)
#920000
0!
04
05
1)
#940000
1!
14
15
0)
#960000
0!
04
05
1)
#980000
1!
14
15
0)
