Thunderbird/simulation/qsim/Thunderbird.msim.vcd
$comment
	File created using the following command:
		vcd file Thunderbird.msim.vcd -direction
$end
$date
	Wed Nov 20 12:56:53 2024
$end
$version
	ModelSim Version 10.1d
$end
$timescale
	1ps
$end
$scope module Thunderbird_vlg_vec_tst $end
$var reg 1 ! CLK $end
$var reg 1 " L $end
$var reg 1 # R $end
$var reg 1 $ Reset $end
$var wire 1 % Lout [2] $end
$var wire 1 & Lout [1] $end
$var wire 1 ' Lout [0] $end
$var wire 1 ( Rout [2] $end
$var wire 1 ) Rout [1] $end
$var wire 1 * Rout [0] $end
$var wire 1 + sampler $end
$scope module i1 $end
$var wire 1 , gnd $end
$var wire 1 - vcc $end
$var wire 1 . unknown $end
$var tri1 1 / devclrn $end
$var tri1 1 0 devpor $end
$var tri1 1 1 devoe $end
$var wire 1 2 Lout[0]~output_o $end
$var wire 1 3 Lout[1]~output_o $end
$var wire 1 4 Lout[2]~output_o $end
$var wire 1 5 Rout[0]~output_o $end
$var wire 1 6 Rout[1]~output_o $end
$var wire 1 7 Rout[2]~output_o $end
$var wire 1 8 Reset~input_o $end
$var wire 1 9 CLK~input_o $end
$var wire 1 : CLK~inputclkctrl_outclk $end
$var wire 1 ; R~input_o $end
$var wire 1 < L~input_o $end
$var wire 1 = comb_90|comb_4|comb_3|QInternal~0_combout $end
$var wire 1 > comb_90|comb_4|comb_3|QInternal~1_combout $end
$var wire 1 ? comb_90|comb_6|comb_3|QInternal~0_combout $end
$var wire 1 @ Lnext[0]~2_combout $end
$var wire 1 A Lnext[0]~3_combout $end
$var wire 1 B comb_87|comb_4|comb_3|QInternal~0_combout $end
$var wire 1 C comb_87|comb_4|comb_3|QInternal~1_combout $end
$var wire 1 D comb_87|comb_6|comb_3|QInternal~0_combout $end
$var wire 1 E Lnext~0_combout $end
$var wire 1 F comb_96|comb_4|comb_3|QInternal~3_combout $end
$var wire 1 G comb_99|comb_4|comb_3|QInternal~0_combout $end
$var wire 1 H comb_93|comb_4|comb_3|QInternal~1_combout $end
$var wire 1 I comb_93|comb_4|comb_3|QInternal~2_combout $end
$var wire 1 J comb_93|comb_6|comb_3|QInternal~0_combout $end
$var wire 1 K comb_99|comb_6|comb_3|QInternal~0_combout $end
$var wire 1 L comb_99|comb_4|comb_3|QInternal~1_combout $end
$var wire 1 M comb_99|comb_4|comb_3|QInternal~2_combout $end
$var wire 1 N comb_93|comb_4|comb_3|QInternal~0_combout $end
$var wire 1 O comb_96|comb_4|comb_3|QInternal~4_combout $end
$var wire 1 P comb_96|comb_6|comb_3|QInternal~0_combout $end
$var wire 1 Q Lnext~1_combout $end
$var wire 1 R comb_96|comb_4|comb_3|QInternal~2_combout $end
$var wire 1 S comb_84|comb_4|comb_3|QInternal~0_combout $end
$var wire 1 T comb_84|comb_4|comb_3|QInternal~1_combout $end
$var wire 1 U comb_84|comb_6|comb_3|QInternal~0_combout $end
$upscope $end
$upscope $end
$enddefinitions $end
#0
$dumpvars
0!
0"
0#
1$
x'
x&
x%
x*
x)
x(
x+
0,
1-
x.
1/
10
11
x2
x3
x4
x5
x6
x7
18
09
0:
0;
0<
1=
1>
x?
x@
xA
xB
1C
xD
xE
1F
1G
0H
1I
xJ
xK
xL
1M
xN
1O
xP
xQ
xR
xS
1T
xU
$end
#10000
1!
19
1:
0+
0R
0G
0B
1U
1P
1K
1J
1D
1?
0S
1E
0@
1Q
1L
1N
02
06
07
05
03
04
0'
0)
0(
0*
0&
0%
1A
#20000
1"
0$
0!
1<
08
09
0:
1+
0L
1G
1B
0T
0F
0C
0=
1R
1C
#30000
1!
19
1:
0+
0R
0G
1F
0B
1=
0U
1@
12
1'
0A
#40000
0"
0!
0<
09
0:
1+
1L
1R
0F
0=
0M
0C
1M
#50000
1!
19
1:
0+
0R
1F
1=
0D
13
1&
#60000
0!
09
0:
1+
1R
0F
0=
0>
#70000
1!
19
1:
0+
0R
1F
1A
0?
0@
14
1%
#80000
0!
09
0:
1+
1R
0F
1B
1S
1>
1C
1T
#90000
1!
19
1:
0+
0R
1F
0B
1=
1U
1D
1?
0S
02
03
04
0'
0&
0%
#100000
1#
0!
1;
09
0:
1+
1H
1B
1R
0F
0=
0T
0C
0I
1C
1S
1T
#110000
1!
19
1:
0+
0R
1F
0B
1=
0J
0S
0N
15
1*
#120000
0#
0!
0;
09
0:
1+
1B
1R
0F
0=
0T
0C
1C
1S
0O
1T
#130000
1!
19
1:
0+
0R
0B
1=
0P
0S
0L
16
1)
#140000
0!
09
0:
1+
1R
1B
0=
0T
0M
0C
1S
1C
1T
#150000
1!
19
1:
0+
0R
1N
0B
1=
0K
0S
0H
1L
17
1(
#160000
0!
09
0:
1+
1R
1B
0=
0T
1M
1I
0C
1S
1O
1C
1T
#170000
1!
19
1:
0+
0R
1F
0B
1=
1P
1K
1J
0S
06
07
05
0)
0(
0*
#180000
0!
09
0:
1+
1R
0F
1B
0=
0T
0C
1S
1C
1T
#190000
1!
19
1:
0+
0R
1F
0B
1=
0S
#200000
1"
1#
0!
1<
1;
09
0:
1+
0L
1H
1R
0F
0=
0T
0C
0M
0I
1S
1T
#210000
1!
19
1:
0+
0R
1F
1=
0K
0J
0D
0S
0Q
0E
17
15
13
1(
1*
1&
#220000
0"
0#
0!
0<
0;
09
0:
1+
1L
0H
1B
0F
0=
0T
1M
1I
1C
0O
0>
#230000
1!
19
1:
0+
0B
0U
0P
1K
1J
1D
0?
1E
1Q
12
16
07
05
03
14
1'
1)
0(
0*
0&
1%
#240000
0!
09
0:
1+
1R
1B
0C
1S
1O
1>
1C
1T
#250000
1!
19
1:
0+
0R
1F
0B
1=
1U
1P
1?
0S
02
06
04
0'
0)
0%
#260000
0!
09
0:
1+
1R
0F
1B
0=
0T
0C
1S
1C
1T
#270000
1!
19
1:
0+
0R
1F
0B
1=
0S
#280000
1"
0!
1<
09
0:
1+
0L
1G
1B
1R
0F
0=
0T
0C
1C
#290000
1!
19
1:
0+
0R
0G
1F
0B
1=
0U
1@
12
1'
0A
#300000
0"
0!
0<
09
0:
1+
1L
1R
0F
0=
0M
0C
1M
#310000
1!
19
1:
0+
0R
1F
1=
0D
13
1&
#320000
1#
0!
1;
09
0:
1+
1H
0@
1R
0F
0=
0I
1A
1S
1B
1T
1C
#330000
1!
19
1:
0+
0R
1F
0B
1=
1U
0J
1D
0S
0N
02
15
03
0'
1*
0&
#340000
0#
0!
0;
09
0:
1+
1B
1R
0F
0=
0T
0C
1C
1S
0O
1T
#350000
1!
19
1:
0+
0R
0B
1=
0P
0S
0L
16
1)
#360000
1"
0!
1<
09
0:
1+
0H
1G
1B
1R
0=
0T
0M
0C
1I
1M
1C
1O
#370000
1!
19
1:
0+
0R
0G
1F
0B
1=
0U
1P
1J
1@
1N
12
06
05
1'
0)
0*
0A
#380000
0"
0!
0<
09
0:
1+
1L
1R
0F
0=
0M
0C
1M
#390000
1!
19
1:
0+
0R
1F
1=
0D
13
1&
#400000
1#
1"
0!
1;
1<
09
0:
1+
1H
0@
0L
1R
0F
0=
0I
1A
0M
1S
1T
#410000
1!
19
1:
0+
0R
1F
1=
1U
0K
0J
0S
0E
0Q
02
17
15
0'
1(
1*
#420000
0"
0!
0<
09
0:
1+
1L
1E
1B
0F
0=
0T
1M
1R
1C
0O
0>
1S
1O
1>
1T
#430000
1!
19
1:
0+
0R
1F
0B
1=
1K
1D
0S
1Q
0N
07
03
0(
0&
#440000
0#
0!
0;
09
0:
1+
1B
1R
0F
0=
0T
0C
1C
1S
0O
1T
#450000
1!
19
1:
0+
0R
0B
1=
0P
0S
0L
16
1)
#460000
0!
09
0:
1+
1R
1B
0=
0T
0M
0C
1S
1C
1T
#470000
1!
19
1:
0+
0R
1N
0B
1=
0K
0S
0H
1L
17
1(
#480000
0!
09
0:
1+
1R
1B
0=
0T
1M
1I
0C
1S
1O
1C
1T
#490000
1!
19
1:
0+
0R
1F
0B
1=
1P
1K
1J
0S
06
07
05
0)
0(
0*
#500000
0!
09
0:
1+
1R
0F
1B
0=
0T
0C
1S
1C
1T
#510000
1!
19
1:
0+
0R
1F
0B
1=
0S
#520000
0!
09
0:
1+
1R
0F
1B
0=
0T
0C
1S
1C
1T
#530000
1!
19
1:
0+
0R
1F
0B
1=
0S
#540000
0!
09
0:
1+
1R
0F
1B
0=
0T
0C
1S
1C
1T
#550000
1!
19
1:
0+
0R
1F
0B
1=
0S
#560000
0!
09
0:
1+
1R
0F
1B
0=
0T
0C
1S
1C
1T
#570000
1!
19
1:
0+
0R
1F
0B
1=
0S
#580000
0!
09
0:
1+
1R
0F
1B
0=
0T
0C
1S
1C
1T
#590000
1!
19
1:
0+
0R
1F
0B
1=
0S
#600000
0!
09
0:
1+
1R
0F
1B
0=
0T
0C
1S
1C
1T
#610000
1!
19
1:
0+
0R
1F
0B
1=
0S
#620000
0!
09
0:
1+
1R
0F
1B
0=
0T
0C
1S
1C
1T
#630000
1!
19
1:
0+
0R
1F
0B
1=
0S
#640000
0!
09
0:
1+
1R
0F
1B
0=
0T
0C
1S
1C
1T
#650000
1!
19
1:
0+
0R
1F
0B
1=
0S
#660000
0!
09
0:
1+
1R
0F
1B
0=
0T
0C
1S
1C
1T
#670000
1!
19
1:
0+
0R
1F
0B
1=
0S
#680000
0!
09
0:
1+
1R
0F
1B
0=
0T
0C
1S
1C
1T
#690000
1!
19
1:
0+
0R
1F
0B
1=
0S
#700000
0!
09
0:
1+
1R
0F
1B
0=
0T
0C
1S
1C
1T
#710000
1!
19
1:
0+
0R
1F
0B
1=
0S
#720000
0!
09
0:
1+
1R
0F
1B
0=
0T
0C
1S
1C
1T
#730000
1!
19
1:
0+
0R
1F
0B
1=
0S
#740000
0!
09
0:
1+
1R
0F
1B
0=
0T
0C
1S
1C
1T
#750000
1!
19
1:
0+
0R
1F
0B
1=
0S
#760000
0!
09
0:
1+
1R
0F
1B
0=
0T
0C
1S
1C
1T
#770000
1!
19
1:
0+
0R
1F
0B
1=
0S
#780000
0!
09
0:
1+
1R
0F
1B
0=
0T
0C
1S
1C
1T
#790000
1!
19
1:
0+
0R
1F
0B
1=
0S
#800000
0!
09
0:
1+
1R
0F
1B
0=
0T
0C
1S
1C
1T
#810000
1!
19
1:
0+
0R
1F
0B
1=
0S
#820000
0!
09
0:
1+
1R
0F
1B
0=
0T
0C
1S
1C
1T
#830000
1!
19
1:
0+
0R
1F
0B
1=
0S
#840000
0!
09
0:
1+
1R
0F
1B
0=
0T
0C
1S
1C
1T
#850000
1!
19
1:
0+
0R
1F
0B
1=
0S
#860000
0!
09
0:
1+
1R
0F
1B
0=
0T
0C
1S
1C
1T
#870000
1!
19
1:
0+
0R
1F
0B
1=
0S
#880000
0!
09
0:
1+
1R
0F
1B
0=
0T
0C
1S
1C
1T
#890000
1!
19
1:
0+
0R
1F
0B
1=
0S
#900000
0!
09
0:
1+
1R
0F
1B
0=
0T
0C
1S
1C
1T
#910000
1!
19
1:
0+
0R
1F
0B
1=
0S
#920000
0!
09
0:
1+
1R
0F
1B
0=
0T
0C
1S
1C
1T
#930000
1!
19
1:
0+
0R
1F
0B
1=
0S
#940000
0!
09
0:
1+
1R
0F
1B
0=
0T
0C
1S
1C
1T
#950000
1!
19
1:
0+
0R
1F
0B
1=
0S
#960000
0!
09
0:
1+
1R
0F
1B
0=
0T
0C
1S
1C
1T
#970000
1!
19
1:
0+
0R
1F
0B
1=
0S
#980000
0!
09
0:
1+
1R
0F
1B
0=
0T
0C
1S
1C
1T
#990000
1!
19
1:
0+
0R
1F
0B
1=
0S
