Thunderbird/simulation/qsim/Thunderbird.msim.vcd
$comment
	File created using the following command:
		vcd file Thunderbird.msim.vcd -direction
$end
$date
	Sat Dec 07 19:42:11 2024
$end
$version
	ModelSim Version 10.1d
$end
$timescale
	1ps
$end
$scope module ThunderbirdTest_vlg_vec_tst $end
$var reg 4 ! KEY [3:0] $end
$var wire 1 " LEDR [17] $end
$var wire 1 # LEDR [16] $end
$var wire 1 $ LEDR [15] $end
$var wire 1 % LEDR [14] $end
$var wire 1 & LEDR [13] $end
$var wire 1 ' LEDR [12] $end
$var wire 1 ( LEDR [11] $end
$var wire 1 ) LEDR [10] $end
$var wire 1 * LEDR [9] $end
$var wire 1 + LEDR [8] $end
$var wire 1 , LEDR [7] $end
$var wire 1 - LEDR [6] $end
$var wire 1 . LEDR [5] $end
$var wire 1 / LEDR [4] $end
$var wire 1 0 LEDR [3] $end
$var wire 1 1 LEDR [2] $end
$var wire 1 2 LEDR [1] $end
$var wire 1 3 LEDR [0] $end
$var wire 1 4 sampler $end
$scope module i1 $end
$var wire 1 5 gnd $end
$var wire 1 6 vcc $end
$var wire 1 7 unknown $end
$var tri1 1 8 devclrn $end
$var tri1 1 9 devpor $end
$var tri1 1 : devoe $end
$var wire 1 ; LEDR[0]~output_o $end
$var wire 1 < LEDR[1]~output_o $end
$var wire 1 = LEDR[2]~output_o $end
$var wire 1 > LEDR[3]~output_o $end
$var wire 1 ? LEDR[4]~output_o $end
$var wire 1 @ LEDR[5]~output_o $end
$var wire 1 A LEDR[6]~output_o $end
$var wire 1 B LEDR[7]~output_o $end
$var wire 1 C LEDR[8]~output_o $end
$var wire 1 D LEDR[9]~output_o $end
$var wire 1 E LEDR[10]~output_o $end
$var wire 1 F LEDR[11]~output_o $end
$var wire 1 G LEDR[12]~output_o $end
$var wire 1 H LEDR[13]~output_o $end
$var wire 1 I LEDR[14]~output_o $end
$var wire 1 J LEDR[15]~output_o $end
$var wire 1 K LEDR[16]~output_o $end
$var wire 1 L LEDR[17]~output_o $end
$var wire 1 M KEY[2]~input_o $end
$var wire 1 N KEY[1]~input_o $end
$var wire 1 O comb_3|comb_352|comb_4|comb_3|QInternal~0_combout $end
$var wire 1 P comb_3|comb_340|comb_4|comb_3|QInternal~1_combout $end
$var wire 1 Q KEY[0]~input_o $end
$var wire 1 R KEY[3]~input_o $end
$var wire 1 S comb_3|comb_346|comb_4|comb_3|QInternal~0_combout $end
$var wire 1 T comb_3|LRterm1~0_combout $end
$var wire 1 U comb_3|LRterm1~1_combout $end
$var wire 1 V comb_3|LRterm1~2_combout $end
$var wire 1 W comb_3|Rnext[0]~2_combout $end
$var wire 1 X comb_3|Rnext[0]~5_combout $end
$var wire 1 Y comb_3|Rnext[0]~4_combout $end
$var wire 1 Z comb_3|comb_346|comb_4|comb_3|QInternal~1_combout $end
$var wire 1 [ comb_3|Rnext[0]~0_combout $end
$var wire 1 \ comb_3|Rnext[0]~1_combout $end
$var wire 1 ] comb_3|comb_346|comb_4|comb_3|QInternal~2_combout $end
$var wire 1 ^ comb_3|Rnext[0]~3_combout $end
$var wire 1 _ comb_3|LRterm1~3_combout $end
$var wire 1 ` comb_3|comb_340|comb_4|comb_3|QInternal~0_combout $end
$var wire 1 a comb_3|comb_346|comb_4|comb_3|QInternal~3_combout $end
$var wire 1 b comb_3|comb_346|comb_6|comb_3|QInternal~0_combout $end
$var wire 1 c comb_3|comb_337|comb_4|comb_3|QInternal~0_combout $end
$var wire 1 d comb_3|comb_337|comb_4|comb_3|QInternal~1_combout $end
$var wire 1 e comb_3|comb_337|comb_4|comb_3|QInternal~2_combout $end
$var wire 1 f comb_3|comb_349|comb_4|comb_3|QInternal~2_combout $end
$var wire 1 g comb_3|comb_337|comb_4|comb_3|QInternal~3_combout $end
$var wire 1 h comb_3|comb_337|comb_4|comb_3|QInternal~4_combout $end
$var wire 1 i comb_3|comb_337|comb_6|comb_3|QInternal~0_combout $end
$var wire 1 j comb_3|comb_349|comb_4|comb_3|QInternal~0_combout $end
$var wire 1 k comb_3|comb_349|comb_4|comb_3|QInternal~1_combout $end
$var wire 1 l comb_3|comb_349|comb_4|comb_3|QInternal~3_combout $end
$var wire 1 m comb_3|comb_349|comb_6|comb_3|QInternal~0_combout $end
$var wire 1 n comb_3|LRterm2~0_combout $end
$var wire 1 o comb_3|comb_343|comb_4|comb_3|QInternal~0_combout $end
$var wire 1 p comb_3|comb_343|comb_4|comb_3|QInternal~1_combout $end
$var wire 1 q comb_3|comb_343|comb_6|comb_3|QInternal~0_combout $end
$var wire 1 r comb_3|Lnext~0_combout $end
$var wire 1 s comb_3|comb_340|comb_4|comb_3|QInternal~2_combout $end
$var wire 1 t comb_3|comb_340|comb_6|comb_3|QInternal~0_combout $end
$var wire 1 u comb_3|comb_352|comb_4|comb_3|QInternal~1_combout $end
$var wire 1 v comb_3|comb_352|comb_4|comb_3|QInternal~2_combout $end
$var wire 1 w comb_3|comb_352|comb_6|comb_3|QInternal~0_combout $end
$upscope $end
$upscope $end
$enddefinitions $end
#0
$dumpvars
b1101 !
x3
x2
x1
x0
x/
x.
0-
0,
0+
0*
0)
0(
0'
0&
0%
0$
0#
0"
x4
05
16
x7
18
19
1:
x;
x<
x=
x>
x?
x@
0A
0B
0C
0D
0E
0F
0G
0H
0I
0J
0K
0L
1M
0N
1O
1P
1Q
1R
1S
xT
xU
xV
xW
0X
xY
xZ
x[
x\
x]
x^
x_
1`
1a
xb
xc
xd
1e
xf
xg
1h
xi
xj
1k
1l
xm
xn
xo
1p
xq
xr
1s
xt
xu
1v
xw
$end
#10000
b1001 !
0M
04
1w
1t
1q
1m
1i
0f
1b
0`
1u
1o
0g
0c
0^
1T
1[
0Y
0W
0j
0V
0U
0;
0?
0@
0<
0>
0=
03
0/
0.
02
00
01
0d
1\
1n
1Z
0r
1_
1]
#20000
b1 !
b11 !
b111 !
1N
1M
0R
14
0k
0h
0S
0P
0O
1f
1`
0e
#30000
b11 !
0M
04
1k
0i
0f
0`
1S
1P
1O
1d
1U
1>
10
1e
1r
#40000
b1011 !
b1111 !
1M
1R
14
0k
1f
1`
0S
0P
0O
0s
#50000
b1011 !
0M
04
0t
1k
0f
0`
1S
1O
0o
1c
0T
1?
1/
#60000
b1111 !
1M
14
0p
0k
1f
1`
0S
0O
#70000
b1011 !
0M
04
0q
1k
0f
0`
1S
1O
0r
1@
1.
1o
#80000
b1111 !
1M
14
1p
0k
1f
1`
0S
0O
1g
1s
1h
#90000
b1011 !
0M
04
1t
1q
1k
1i
0f
0`
1S
1P
1O
0c
1T
1r
0U
0g
0?
0@
0>
0/
0.
00
0d
0r
#100000
b1010 !
b1110 !
0Q
1M
14
1`
0]
0k
0h
1f
0S
0P
0O
0a
1g
1h
#110000
b1010 !
0M
04
1k
0f
0b
0`
1P
1O
0g
1j
0[
1W
1=
11
0\
0Z
#120000
b1011 !
b1111 !
1Q
1M
14
1`
0k
0h
1f
0P
0O
0l
1g
1h
#130000
b1011 !
0M
04
0m
0f
0`
1P
1O
0u
0g
1<
12
#140000
b1111 !
1M
14
0h
1f
1`
0P
0O
1g
0v
1h
#150000
b1011 !
0M
04
0w
0f
0`
1P
1u
0g
1Z
0T
1;
13
1]
#160000
b1111 !
1M
14
0h
1f
1`
0P
1l
1g
1v
1a
1h
#170000
b1011 !
0M
04
1w
1m
1k
0f
1b
0`
1S
1P
1O
0g
0Z
1T
0j
1[
0W
0;
0<
0=
03
02
01
0]
1\
0_
1Z
1_
1]
#180000
b1111 !
1M
14
0k
0h
1f
1`
0S
0P
0O
1g
1h
#190000
b1011 !
0M
04
1k
0f
0`
1S
1P
1O
0g
#200000
b11 !
b10 !
b110 !
0Q
1M
0R
14
0]
0k
0h
1f
0S
0P
0O
0a
1g
0s
0v
1h
#210000
b10 !
0M
04
0w
0t
1k
0f
0b
0g
1^
0\
1X
0T
0[
1Y
1;
1?
1=
13
1/
11
0_
1]
0Z
0n
0]
0o
#220000
b1010 !
b1011 !
b1111 !
1Q
1M
1R
14
1`
0X
0p
0k
0h
1j
1v
1s
1Z
0l
1]
1a
#230000
b1011 !
0M
04
1w
1t
0q
0m
0i
1b
0`
1S
1P
1O
0u
1o
1c
0^
1T
0Y
0j
1d
1n
1U
0;
0?
1@
1<
1>
0=
03
0/
1.
12
10
01
1V
1u
1_
#240000
b1111 !
1M
14
1p
1f
1`
0S
0P
0O
1l
1g
1h
#250000
b1011 !
0M
04
1q
1m
1k
1i
0f
0`
1S
1P
1O
1r
1[
0V
0c
0U
0g
0@
0<
0>
0.
02
00
1\
0_
0d
0r
1_
#260000
b1111 !
1M
14
0k
0h
1f
1`
0S
0P
0O
1g
1h
#270000
b1011 !
0M
04
1k
0f
0`
1S
1P
1O
0g
#280000
b11 !
b111 !
1M
0R
14
0k
0h
1f
1`
0S
0P
0O
0e
#290000
b11 !
0M
04
1k
0i
0f
0`
1S
1P
1O
1d
1U
1>
10
1e
1r
#300000
b1011 !
b1111 !
1M
1R
14
0k
1f
1`
0S
0P
0O
0s
#310000
b1011 !
0M
04
0t
1k
0f
0`
1S
1O
0o
1c
0T
1?
1/
#320000
b1010 !
b1110 !
0Q
1M
14
0r
1`
0]
0p
0k
1f
0S
0O
1s
1o
1g
0a
1p
1h
#330000
b1010 !
0M
04
1t
1k
1i
0f
0b
0`
1P
1O
0c
0[
1W
1T
1j
0U
0g
0?
0>
1=
0/
00
11
0d
0\
0Z
#340000
b1011 !
b1111 !
1Q
1M
14
1`
0k
0h
1f
0P
0O
0l
1g
1h
#350000
b1011 !
0M
04
0m
0f
0`
1P
1O
0u
0g
1<
12
#360000
b11 !
b111 !
1M
0R
14
0h
1f
1`
0P
0O
0j
0e
1l
0v
1a
1u
1v
#370000
b11 !
0M
04
1m
1k
0i
0f
1b
0`
1S
1P
1O
1d
1[
0W
1U
0<
1>
0=
02
10
01
1e
1\
0_
1Z
1r
1_
1]
#380000
b1011 !
b1111 !
1M
1R
14
0k
1f
1`
0S
0P
0O
0s
#390000
b1011 !
0M
04
0t
1k
0f
0`
1S
1O
0o
1c
0T
1?
1/
#400000
b1010 !
b10 !
b110 !
0Q
1M
0R
14
0r
0]
0p
0k
1f
0S
0O
1o
1g
0a
0v
1p
1h
#410000
b10 !
0M
04
0w
1k
1i
0f
0b
0g
0c
1^
0\
1X
0[
1Y
0U
1;
0>
1=
13
00
11
0d
0_
1]
0Z
0n
0]
0o
#420000
b1010 !
b1110 !
1M
1R
14
0p
0k
0h
1`
1n
1j
0l
1v
1s
1o
1f
1p
1l
1g
1h
#430000
b1010 !
0M
04
1w
1t
1k
0f
0`
1P
1O
0g
0^
0X
1T
0Y
1W
0;
0?
03
0/
1_
#440000
b1011 !
b1111 !
1Q
1M
14
1`
0k
0h
1f
0P
0O
0l
1g
1h
#450000
b1011 !
0M
04
0m
0f
0`
1P
1O
0u
0g
1<
12
#460000
b1111 !
1M
14
0h
1f
1`
0P
0O
1g
0v
1h
#470000
b1011 !
0M
04
0w
0f
0`
1P
1u
0g
1Z
0T
1;
13
1]
#480000
b1111 !
1M
14
0h
1f
1`
0P
1l
1g
1v
1a
1h
#490000
b1011 !
0M
04
1w
1m
1k
0f
1b
0`
1S
1P
1O
0g
0Z
1T
0j
1[
0W
0;
0<
0=
03
02
01
0]
1\
0_
1Z
1_
1]
#500000
b1111 !
1M
14
0k
0h
1f
1`
0S
0P
0O
1g
1h
#510000
b1011 !
0M
04
1k
0f
0`
1S
1P
1O
0g
#520000
b1111 !
1M
14
0k
0h
1f
1`
0S
0P
0O
1g
1h
#530000
b1011 !
0M
04
1k
0f
0`
1S
1P
1O
0g
#540000
b1111 !
1M
14
0k
0h
1f
1`
0S
0P
0O
1g
1h
#550000
b1011 !
0M
04
1k
0f
0`
1S
1P
1O
0g
#560000
b1111 !
1M
14
0k
0h
1f
1`
0S
0P
0O
1g
1h
#570000
b1011 !
0M
04
1k
0f
0`
1S
1P
1O
0g
#580000
b1111 !
1M
14
0k
0h
1f
1`
0S
0P
0O
1g
1h
#590000
b1011 !
0M
04
1k
0f
0`
1S
1P
1O
0g
#600000
b1111 !
1M
14
0k
0h
1f
1`
0S
0P
0O
1g
1h
#610000
b1011 !
0M
04
1k
0f
0`
1S
1P
1O
0g
#620000
b1111 !
1M
14
0k
0h
1f
1`
0S
0P
0O
1g
1h
#630000
b1011 !
0M
04
1k
0f
0`
1S
1P
1O
0g
#640000
b1111 !
1M
14
0k
0h
1f
1`
0S
0P
0O
1g
1h
#650000
b1011 !
0M
04
1k
0f
0`
1S
1P
1O
0g
#660000
b1111 !
1M
14
0k
0h
1f
1`
0S
0P
0O
1g
1h
#670000
b1011 !
0M
04
1k
0f
0`
1S
1P
1O
0g
#680000
b1111 !
1M
14
0k
0h
1f
1`
0S
0P
0O
1g
1h
#690000
b1011 !
0M
04
1k
0f
0`
1S
1P
1O
0g
#700000
b1111 !
1M
14
0k
0h
1f
1`
0S
0P
0O
1g
1h
#710000
b1011 !
0M
04
1k
0f
0`
1S
1P
1O
0g
#720000
b1111 !
1M
14
0k
0h
1f
1`
0S
0P
0O
1g
1h
#730000
b1011 !
0M
04
1k
0f
0`
1S
1P
1O
0g
#740000
b1111 !
1M
14
0k
0h
1f
1`
0S
0P
0O
1g
1h
#750000
b1011 !
0M
04
1k
0f
0`
1S
1P
1O
0g
#760000
b1111 !
1M
14
0k
0h
1f
1`
0S
0P
0O
1g
1h
#770000
b1011 !
0M
04
1k
0f
0`
1S
1P
1O
0g
#780000
b1111 !
1M
14
0k
0h
1f
1`
0S
0P
0O
1g
1h
#790000
b1011 !
0M
04
1k
0f
0`
1S
1P
1O
0g
#800000
b1111 !
1M
14
0k
0h
1f
1`
0S
0P
0O
1g
1h
#810000
b1011 !
0M
04
1k
0f
0`
1S
1P
1O
0g
#820000
b1111 !
1M
14
0k
0h
1f
1`
0S
0P
0O
1g
1h
#830000
b1011 !
0M
04
1k
0f
0`
1S
1P
1O
0g
#840000
b1111 !
1M
14
0k
0h
1f
1`
0S
0P
0O
1g
1h
#850000
b1011 !
0M
04
1k
0f
0`
1S
1P
1O
0g
#860000
b1111 !
1M
14
0k
0h
1f
1`
0S
0P
0O
1g
1h
#870000
b1011 !
0M
04
1k
0f
0`
1S
1P
1O
0g
#880000
b1111 !
1M
14
0k
0h
1f
1`
0S
0P
0O
1g
1h
#890000
b1011 !
0M
04
1k
0f
0`
1S
1P
1O
0g
#900000
b1111 !
1M
14
0k
0h
1f
1`
0S
0P
0O
1g
1h
#910000
b1011 !
0M
04
1k
0f
0`
1S
1P
1O
0g
#920000
b1111 !
1M
14
0k
0h
1f
1`
0S
0P
0O
1g
1h
#930000
b1011 !
0M
04
1k
0f
0`
1S
1P
1O
0g
#940000
b1111 !
1M
14
0k
0h
1f
1`
0S
0P
0O
1g
1h
#950000
b1011 !
0M
04
1k
0f
0`
1S
1P
1O
0g
#960000
b1111 !
1M
14
0k
0h
1f
1`
0S
0P
0O
1g
1h
#970000
b1011 !
0M
04
1k
0f
0`
1S
1P
1O
0g
#980000
b1111 !
1M
14
0k
0h
1f
1`
0S
0P
0O
1g
1h
#990000
b1011 !
0M
04
1k
0f
0`
1S
1P
1O
0g
