TFlipFlop/simulation/qsim/TFlipFlop.msim.vcd
$comment
	File created using the following command:
		vcd file TFlipFlop.msim.vcd -direction
$end
$date
	Thu Nov 21 18:53:14 2024
$end
$version
	ModelSim Version 10.1d
$end
$timescale
	1ps
$end
$scope module BinaryCounter_vlg_vec_tst $end
$var reg 1 ! CLK $end
$var reg 1 " T $end
$var wire 1 # counter [7] $end
$var wire 1 $ counter [6] $end
$var wire 1 % counter [5] $end
$var wire 1 & counter [4] $end
$var wire 1 ' counter [3] $end
$var wire 1 ( counter [2] $end
$var wire 1 ) counter [1] $end
$var wire 1 * counter [0] $end
$var wire 1 + sampler $end
$scope module i1 $end
$var wire 1 , gnd $end
$var wire 1 - vcc $end
$var wire 1 . unknown $end
$var tri1 1 / devclrn $end
$var tri1 1 0 devpor $end
$var tri1 1 1 devoe $end
$var wire 1 2 counter[0]~output_o $end
$var wire 1 3 counter[1]~output_o $end
$var wire 1 4 counter[2]~output_o $end
$var wire 1 5 counter[3]~output_o $end
$var wire 1 6 counter[4]~output_o $end
$var wire 1 7 counter[5]~output_o $end
$var wire 1 8 counter[6]~output_o $end
$var wire 1 9 counter[7]~output_o $end
$var wire 1 : T~input_o $end
$var wire 1 ; CLK~input_o $end
$var wire 1 < comb_3|comb_3|comb_4|comb_3|QInternal~0_combout $end
$var wire 1 = comb_3|comb_3|comb_6|comb_3|QInternal~0_combout $end
$var wire 1 > comb_3|comb_3|comb_6|comb_3|QbarInternal~0_combout $end
$var wire 1 ? comb_4|comb_3|comb_4|comb_3|QInternal~0_combout $end
$var wire 1 @ comb_4|comb_3|comb_6|comb_3|QInternal~0_combout $end
$var wire 1 A comb_5|comb~0_combout $end
$var wire 1 B comb_4|comb_3|comb_6|comb~0_combout $end
$var wire 1 C comb_5|comb_3|comb_4|comb_3|QInternal~0_combout $end
$var wire 1 D comb_5|comb_3|comb_6|comb_3|QInternal~0_combout $end
$var wire 1 E comb_5|comb_3|comb_6|comb_3|QbarInternal~0_combout $end
$var wire 1 F comb_6|comb_3|comb_4|comb_3|QInternal~0_combout $end
$var wire 1 G comb_6|comb_3|comb_6|comb_3|QInternal~0_combout $end
$var wire 1 H comb_6|comb_3|comb_6|comb_3|QbarInternal~0_combout $end
$var wire 1 I comb_7|comb_3|comb_4|comb_3|QInternal~0_combout $end
$var wire 1 J comb_7|comb_3|comb_6|comb_3|QInternal~0_combout $end
$var wire 1 K comb_7|comb_3|comb_6|comb_3|QbarInternal~0_combout $end
$var wire 1 L comb_8|comb_3|comb_4|comb_3|QInternal~0_combout $end
$var wire 1 M comb_8|comb_3|comb_6|comb_3|QInternal~0_combout $end
$var wire 1 N comb_9|comb~0_combout $end
$var wire 1 O comb_10|comb_3|comb_6|comb_3|QInternal~0_combout $end
$var wire 1 P comb_9|comb_3|comb_4|comb_3|QInternal~0_combout $end
$var wire 1 Q comb_9|comb_3|comb_6|comb_3|QInternal~0_combout $end
$var wire 1 R comb_10|comb_3|comb_6|comb_3|QInternal~1_combout $end
$var wire 1 S comb_10|comb_3|comb_6|comb_3|QInternal~1clkctrl_outclk $end
$var wire 1 T comb_10|comb_3|comb_4|comb_3|QInternal~0_combout $end
$var wire 1 U comb_10|comb_3|comb_6|comb_3|QInternal~2_combout $end
$upscope $end
$upscope $end
$enddefinitions $end
#0
$dumpvars
0!
1"
x*
x)
x(
x'
x&
x%
x$
x#
x+
0,
1-
x.
1/
10
11
x2
x3
x4
x5
x6
x7
x8
x9
1:
0;
x<
x=
x>
x?
x@
xA
xB
xC
xD
xE
xF
xG
xH
xI
xJ
xK
xL
xM
xN
xO
xP
xQ
xR
xS
xT
xU
$end
#40000
1!
1;
0+
#80000
0!
0;
1+
#120000
1!
1;
0+
#160000
0!
0;
1+
#200000
1!
1;
0+
#240000
0!
0;
1+
#280000
1!
1;
0+
#320000
0!
0;
1+
#360000
1!
1;
0+
#400000
0!
0;
1+
#440000
1!
1;
0+
#480000
0!
0;
1+
#520000
1!
1;
0+
#560000
0!
0;
1+
#600000
1!
1;
0+
#640000
0!
0;
1+
#680000
1!
1;
0+
#720000
0!
0;
1+
#760000
1!
1;
0+
#800000
0!
0;
1+
#840000
1!
1;
0+
#880000
0!
0;
1+
#920000
1!
1;
0+
#960000
0!
0;
1+
