DFlipFlop/simulation/qsim/DFlipFlop.msim.vcd
$comment
	File created using the following command:
		vcd file DFlipFlop.msim.vcd -direction
$end
$date
	Thu Nov 21 17:50:48 2024
$end
$version
	ModelSim Version 10.1d
$end
$timescale
	1ps
$end
$scope module DLatchWaveform_vlg_vec_tst $end
$var reg 1 ! D $end
$var reg 1 " E $end
$var wire 1 # Q $end
$var wire 1 $ Qbar $end
$var wire 1 % sampler $end
$scope module i1 $end
$var wire 1 & gnd $end
$var wire 1 ' vcc $end
$var wire 1 ( unknown $end
$var tri1 1 ) devclrn $end
$var tri1 1 * devpor $end
$var tri1 1 + devoe $end
$var wire 1 , Q~output_o $end
$var wire 1 - Qbar~output_o $end
$var wire 1 . D~input_o $end
$var wire 1 / E~input_o $end
$var wire 1 0 comb_3|comb_3|QInternal~0_combout $end
$var wire 1 1 comb_3|comb_3|QbarInternal~0_combout $end
$upscope $end
$upscope $end
$enddefinitions $end
#0
$dumpvars
0!
0"
x#
x$
x%
0&
1'
x(
1)
1*
1+
x,
x-
0.
0/
x0
x1
$end
#40000
1!
1.
0%
#80000
0!
0.
1%
#120000
1!
1.
0%
#160000
0!
0.
1%
#200000
1"
1/
0%
10
01
0,
0#
1-
1$
#240000
1!
1.
1%
11
00
0-
1,
0$
1#
#280000
0!
0.
0%
10
01
0,
0#
1-
1$
#320000
1!
1.
1%
11
00
0-
1,
0$
1#
#360000
0"
0/
0%
#400000
0!
0.
1%
#440000
1!
1.
0%
#480000
0!
0.
1%
#520000
1!
1.
0%
#560000
0!
0.
1%
#600000
1"
1/
0%
10
01
0,
0#
1-
1$
#640000
0"
0/
1%
