DFlipFlop/simulation/qsim/DFlipFlop.msim.vcd
$comment
	File created using the following command:
		vcd file DFlipFlop.msim.vcd -direction
$end
$date
	Fri Nov 08 14:34:53 2024
$end
$version
	ModelSim Version 10.1d
$end
$timescale
	1ps
$end
$scope module DFlipFlop_vlg_vec_tst $end
$var reg 1 ! CLK $end
$var reg 1 " D $end
$var wire 1 # Q $end
$var wire 1 $ Qbar $end
$var wire 1 % sampler $end
$scope module i1 $end
$var wire 1 & gnd $end
$var wire 1 ' vcc $end
$var wire 1 ( unknown $end
$var tri1 1 ) devclrn $end
$var tri1 1 * devpor $end
$var tri1 1 + devoe $end
$var wire 1 , Q~output_o $end
$var wire 1 - Qbar~output_o $end
$var wire 1 . CLK~input_o $end
$var wire 1 / CLK~inputclkctrl_outclk $end
$var wire 1 0 D~input_o $end
$var wire 1 1 comb_4|comb_3|QInternal~0_combout $end
$var wire 1 2 comb_6|comb_3|QInternal~0_combout $end
$var wire 1 3 comb_6|comb_3|QbarInternal~0_combout $end
$upscope $end
$upscope $end
$enddefinitions $end
#0
$dumpvars
0!
0"
x#
x$
x%
0&
1'
x(
1)
1*
1+
x,
x-
0.
0/
00
11
x2
x3
$end
#171
1"
10
0%
01
#1704
0"
00
1%
11
#2500
1!
1.
1/
0%
12
03
0,
0#
1-
1$
#3504
1"
10
1%
#5000
0!
0.
0/
0%
01
#5037
0"
00
1%
11
#6837
1"
10
0%
01
#7500
1!
1.
1/
1%
13
02
0-
1,
0$
1#
#8370
0"
00
0%
#10000
0!
1"
0.
10
0/
1%
#10331
0"
00
0%
11
#12500
1!
1.
1/
1%
12
03
0,
0#
1-
1$
#12981
1"
10
0%
#15000
0!
0.
0/
1%
01
#15331
0"
00
0%
11
#17500
1!
1.
1/
1%
#17981
1"
10
0%
